﻿{
    "$schema": "https://json.schemastore.org/launchsettings.json",
    "profiles": {
        "App3": {
            "commandName": "Project",
            "dotnetRunMessages": true,
            "launchBrowser": false,
            "launchUrl": "swagger",
            "applicationUrl": "https://localhost:5003;",
            "environmentVariables": {
                "ASPNETCORE_ENVIRONMENT": "Development"
            }
        }
    }
}
